{
	"$schema": "http://json-schema.org/draft-07/schema",
	"description": "the baylene configuration json schema (MIT License)",
	"type":"object",
	"properties": {
		"projects": {
			"type":"array",
			"description": "the projects known to baylene",
			"items": [
				{
					"description": "Describes the baylene build descriptor format",
					"type":"object",
					"properties": {
						"name": {
							"type":"string",
							"description": "the name of the project"
						},
						"image": {
							"type":"string",
							"description": "the docker image to use for the main build process"
						},
						"hash": {
							"type":"string",
							"description": "the hash of the descriptor file"
						},
						"services":{
							"type":"array",
							"description": "the docker image for the services used by the build process",
							"items": {
								"type":"string"
							}
						},
						"steps": {
							"type":"array",
							"description": "the build steps",
							"items": {
								"type":"object",
								"description": "a build step",
								"properties": {
									"uuid": {
										"type":"string",
										"description": "the step uuid"
									},
									"name": {
										"type":"string",
										"description": "the step name"
									},
									"cmd": {
										"type":"array",
										"description": "the step commands",
										"items": {
											"type":"string"
										}
									},
									"dependencies": {
										"type":"array",
										"description": "the step dependencies (between other steps)",
										"items": {
											"type":"string"
										}
									},
									"options": {
										"type":"array",
										"description": "step options",
										"items": {
											"type":"object",
											"description": "step option",
											"properties": {
												"name": {
													"type":"string",
													"description": "the option name"
												},
												"value": {
													"type":"string",
													"description": "the option value"
												}
											},
											"required": [
												"name", "value"
											]
										}
									}
								},
								"required": [
									"name", "cmd"
								]
							}
						}
					},
					"required": [
						"name"
					]
				}
			]
		}
	}
}
